^C:\USERS\משתמש\DESKTOP\C++\LESSON-13\MAGSHICHAT\MAGSHICHAT\DEBUG\HELPER.OBJ|C:\USERS\משתמש\DESKTOP\C++\LESSON-13\MAGSHICHAT\MAGSHICHAT\DEBUG\SERVER.OBJ|C:\USERS\משתמש\DESKTOP\C++\LESSON-13\MAGSHICHAT\MAGSHICHAT\DEBUG\SOURCE.OBJ|C:\USERS\משתמש\DESKTOP\C++\LESSON-13\MAGSHICHAT\MAGSHICHAT\DEBUG\WSAINITIALIZER.OBJ
C:\USERS\משתמש\DESKTOP\C++\LESSON-13\MAGSHICHAT\DEBUG\MAGSHICHAT.EXE
C:\USERS\משתמש\DESKTOP\C++\LESSON-13\MAGSHICHAT\DEBUG\MAGSHICHAT.ILK
C:\USERS\משתמש\DESKTOP\C++\LESSON-13\MAGSHICHAT\DEBUG\MAGSHICHAT.PDB
